Begin R
…
Loading Data from Excel

Now you are ready to read in some data and start working with it. For much of this tutorial we will work with anonymized public UW salary data (courtesy of UFAS#223). It provides a variety of fields and might be similar to data that you may encounter in your job. Find the data here, and place it in a new directory called “Example_Data” within the “R-Tutorial” folder you are working in.

Now you are ready to load the data into R using a function from the readxl package you just loaded. Note that R can load a variety of file formats, including .csv, as well as from other statistical packages like SPSS, SAS, and Stata. The easiest way to load data is via the upper-right pane and the “Environment” -> “Import Dataset” button. This will write the code to import data for you, but you can always just write it directly.

The following command will read in the excel file, using the read_excel function from the readxl package and place that data into the salary.data object using <-. You can think of that like an arrow, placing whatever is on its right side into the object on the left side in your computer’s memory.

#Load salary_data.xlsx into the variable salary.data
salary.data <- read_excel("Example_Data/salary_data.xlsx")
#Display data frame
salary.data

# A tibble: 21,857 × 13
   `Person Num` Division         Department `Employee Category` `Job Code` Title
          <dbl> <chr>            <chr>      <chr>               <chr>      <chr>
 1            1 UW - Madison Ex… Positive … AS                  OE009      Outr…
 2            2 Intercollegiate… General O… AS                  AE002      Acad…
 3            3 School of Educa… Prof Lear… AS                  OE008      Outr…
 4            4 VC for Rsrch & … Administr… AS                  AD073      Admi…
 5            5 Sch of Med & Pu… UW Compre… AS                  OE009      Outr…
 6            6 Information Tec… Systems E… AS                  IT033      Serv…
 7            7 University Poli… Police Su… CP                  CP033X     Poli…
 8            8 School of Human… School of… AS                  AD059      Chie…
 9            9 Information Tec… User Serv… CP                  IT050      User…
10           10 College of Lett… Interdis … CP                  FP031      Faci…
# ℹ 21,847 more rows
# ℹ 7 more variables: `Full-time Equivalent` <dbl>, `Annual Full Salary` <dbl>,
#   `Annual FTE Adjusted Salary` <dbl>, `FLSA Status` <chr>,
#   `Salary Grade` <chr>, `Date of Hire` <dttm>,
#   `Appointment Type and Length` <chr>
…
# A tibble: 2 × 13
  `Person Num` Division          Department `Employee Category` `Job Code` Title
         <dbl> <chr>             <chr>      <chr>               <chr>      <chr>
1        18003 College of Lette… Economics  FA                  FA020      Prof…
2        20797 School of Veteri… Pathobiol… FA                  FA020      Prof…
# ℹ 7 more variables: `Full-time Equivalent` <dbl>, `Annual Full Salary` <dbl>,
#   `Annual FTE Adjusted Salary` <dbl>, `FLSA Status` <chr>,
#   `Salary Grade` <chr>, `Date of Hire` <dttm>,
#   `Appointment Type and Length` <chr>

# Use a negation sign (!) to keep rows that don't meet the condition
salary.data %>%
  filter(!(`Annual Full Salary` > 500000))

# A tibble: 21,855 × 13
   `Person Num` Division         Department `Employee Category` `Job Code` Title
          <dbl> <chr>            <chr>      <chr>               <chr>      <chr>
 1            1 UW - Madison Ex… Positive … AS                  OE009      Outr…
 2            2 Intercollegiate… General O… AS                  AE002      Acad…
 3            3 School of Educa… Prof Lear… AS                  OE008      Outr…
 4            4 VC for Rsrch & … Administr… AS                  AD073      Admi…
 5            5 Sch of Med & Pu… UW Compre… AS                  OE009      Outr…
 6            6 Information Tec… Systems E… AS                  IT033      Serv…
 7            7 University Poli… Police Su… CP                  CP033X     Poli…
 8            8 School of Human… School of… AS                  AD059      Chie…
 9            9 Information Tec… User Serv… CP                  IT050      User…
10           10 College of Lett… Interdis … CP                  FP031      Faci…
# ℹ 21,845 more rows
# ℹ 7 more variables: `Full-time Equivalent` <dbl>, `Annual Full Salary` <dbl>,
#   `Annual FTE Adjusted Salary` <dbl>, `FLSA Status` <chr>,
#   `Salary Grade` <chr>, `Date of Hire` <dttm>,
#   `Appointment Type and Length` <chr>
…
Select

Choose which columns of a data frame to keep (or exclude) with the select() function. To keep columns list them, to exclude columns list them with a “-”. You can also rename columns while selecting them by using the = with the new name on the left side and the old name on the right.

# This keeps columns "Person_Num", "Title", and "Annual Full Salary"

salary.data %>%
  select(`Person Num`, Title, `Annual Full Salary`) 

# A tibble: 21,857 × 3
   `Person Num` Title                      `Annual Full Salary`
          <dbl> <chr>                                     <dbl>
 1            1 Outreach Specialist                       58845
 2            2 Academic Advisor                          54060
 3            3 Outreach Program Manager                  66825
 4            4 Admin Assoc Dir (Inst)                   105000
 5            5 Outreach Specialist                       49683
 6            6 Service Coordinator I                     85301
 7            7 Police Captain                           131539
 8            8 Chief of Staff I (C)                     101301
 9            9 User Support Specialist II                59155
10           10 Facilities Technician III                 54766
# ℹ 21,847 more rows

# You can also exclude columns and keeps all others.
salary.data %>%
  select(-`Job Code`, -`FLSA Status`)

# A tibble: 21,857 × 11
   `Person Num` Division                    Department `Employee Category` Title
          <dbl> <chr>                       <chr>      <chr>               <chr>
 1            1 UW - Madison Extension      Positive … AS                  Outr…
 2            2 Intercollegiate Athletics   General O… AS                  Acad…
 3            3 School of Education         Prof Lear… AS                  Outr…
 4            4 VC for Rsrch & Grad Educat… Administr… AS                  Admi…
 5            5 Sch of Med & Public Health  UW Compre… AS                  Outr…
 6            6 Information Technology      Systems E… AS                  Serv…
 7            7 University Police Dept      Police Su… CP                  Poli…
 8            8 School of Human Ecology     School of… AS                  Chie…
 9            9 Information Technology      User Serv… CP                  User…
10           10 College of Letters & Scien… Interdis … CP                  Faci…
# ℹ 21,847 more rows
# ℹ 6 more variables: `Full-time Equivalent` <dbl>, `Annual Full Salary` <dbl>,
#   `Annual FTE Adjusted Salary` <dbl>, `Salary Grade` <chr>,
#   `Date of Hire` <dttm>, `Appointment Type and Length` <chr>

# You can use select to rename columns too, though this only keeps listed columns
salary.data %>%
  select(ID = `Person Num`, Title, Salary = `Annual Full Salary`)

# A tibble: 21,857 × 3
      ID Title                      Salary
   <dbl> <chr>                       <dbl>
 1     1 Outreach Specialist         58845
 2     2 Academic Advisor            54060
 3     3 Outreach Program Manager    66825
 4     4 Admin Assoc Dir (Inst)     105000
 5     5 Outreach Specialist         49683
 6     6 Service Coordinator I       85301
 7     7 Police Captain             131539
 8     8 Chief of Staff I (C)       101301
 9     9 User Support Specialist II  59155
10    10 Facilities Technician III   54766
# ℹ 21,847 more rows

# A separate function rename will will not exclude those columns not listed.
salary.data %>%
  rename(ID = `Person Num`, Salary = `Annual Full Salary`)

# A tibble: 21,857 × 13
      ID Division                Department `Employee Category` `Job Code` Title
   <dbl> <chr>                   <chr>      <chr>               <chr>      <chr>
 1     1 UW - Madison Extension  Positive … AS                  OE009      Outr…
 2     2 Intercollegiate Athlet… General O… AS                  AE002      Acad…
 3     3 School of Education     Prof Lear… AS                  OE008      Outr…
 4     4 VC for Rsrch & Grad Ed… Administr… AS                  AD073      Admi…
 5     5 Sch of Med & Public He… UW Compre… AS                  OE009      Outr…
 6     6 Information Technology  Systems E… AS                  IT033      Serv…
 7     7 University Police Dept  Police Su… CP                  CP033X     Poli…
 8     8 School of Human Ecology School of… AS                  AD059      Chie…
 9     9 Information Technology  User Serv… CP                  IT050      User…
10    10 College of Letters & S… Interdis … CP                  FP031      Faci…
# ℹ 21,847 more rows
# ℹ 7 more variables: `Full-time Equivalent` <dbl>, Salary <dbl>,
#   `Annual FTE Adjusted Salary` <dbl>, `FLSA Status` <chr>,
#   `Salary Grade` <chr>, `Date of Hire` <dttm>,
#   `Appointment Type and Length` <chr>

Group By

The group_by function does not do anything visible on its own, but groups the data frame for use by other functions (like )

# This groups the data by Division and Title
# Notice that nothing visually changes about the data.
salary.data %>%
  group_by(Division, Title)

# A tibble: 21,857 × 13
# Groups:   Division, Title [3,258]
   `Person Num` Division         Department `Employee Category` `Job Code` Title
          <dbl> <chr>            <chr>      <chr>               <chr>      <chr>
 1            1 UW - Madison Ex… Positive … AS                  OE009      Outr…
 2            2 Intercollegiate… General O… AS                  AE002      Acad…
 3            3 School of Educa… Prof Lear… AS                  OE008      Outr…
 4            4 VC for Rsrch & … Administr… AS                  AD073      Admi…
 5            5 Sch of Med & Pu… UW Compre… AS                  OE009      Outr…
 6            6 Information Tec… Systems E… AS                  IT033      Serv…
 7            7 University Poli… Police Su… CP                  CP033X     Poli…
 8            8 School of Human… School of… AS                  AD059      Chie…
 9            9 Information Tec… User Serv… CP                  IT050      User…
10           10 College of Lett… Interdis … CP                  FP031      Faci…
# ℹ 21,847 more rows
# ℹ 7 more variables: `Full-time Equivalent` <dbl>, `Annual Full Salary` <dbl>,
#   `Annual FTE Adjusted Salary` <dbl>, `FLSA Status` <chr>,
#   `Salary Grade` <chr>, `Date of Hire` <dttm>,
#   `Appointment Type and Length` <chr>

Mutate

The mutate() function has a funny name, but it essentially allows you to create calculated fields. It does not aggregate over the rows, but creates a new column in the same data frame structure. Aggregated values can be used in calculations too.

# Create new columns with FTE adjusted salary (though this already exists in the data) and years employed.
 salary.data %>%
  mutate(salary = `Annual Full Salary` * `Full-time Equivalent`,
         years_employed = time_length(difftime(Sys.Date(), as.Date(`Date of Hire`)), "years"))

# A tibble: 21,857 × 15
   `Person Num` Division         Department `Employee Category` `Job Code` Title
          <dbl> <chr>            <chr>      <chr>               <chr>      <chr>
 1            1 UW - Madison Ex… Positive … AS                  OE009      Outr…
 2            2 Intercollegiate… General O… AS                  AE002      Acad…
 3            3 School of Educa… Prof Lear… AS                  OE008      Outr…
 4            4 VC for Rsrch & … Administr… AS                  AD073      Admi…
 5            5 Sch of Med & Pu… UW Compre… AS                  OE009      Outr…
 6            6 Information Tec… Systems E… AS                  IT033      Serv…
 7            7 University Poli… Police Su… CP                  CP033X     Poli…
 8            8 School of Human… School of… AS                  AD059      Chie…
 9            9 Information Tec… User Serv… CP                  IT050      User…
10           10 College of Lett… Interdis … CP                  FP031      Faci…
# ℹ 21,847 more rows
# ℹ 9 more variables: `Full-time Equivalent` <dbl>, `Annual Full Salary` <dbl>,
#   `Annual FTE Adjusted Salary` <dbl>, `FLSA Status` <chr>,
#   `Salary Grade` <chr>, `Date of Hire` <dttm>,
#   `Appointment Type and Length` <chr>, salary <dbl>, years_employed <dbl>

# Use mean to calculate relative to all other salaries
salary.data %>%
  mutate(salary_relative_to_title = `Annual FTE Adjusted Salary` - mean(`Annual FTE Adjusted Salary`))

# A tibble: 21,857 × 14
   `Person Num` Division         Department `Employee Category` `Job Code` Title
          <dbl> <chr>            <chr>      <chr>               <chr>      <chr>
 1            1 UW - Madison Ex… Positive … AS                  OE009      Outr…
 2            2 Intercollegiate… General O… AS                  AE002      Acad…
 3            3 School of Educa… Prof Lear… AS                  OE008      Outr…
 4            4 VC for Rsrch & … Administr… AS                  AD073      Admi…
 5            5 Sch of Med & Pu… UW Compre… AS                  OE009      Outr…
 6            6 Information Tec… Systems E… AS                  IT033      Serv…
 7            7 University Poli… Police Su… CP                  CP033X     Poli…
 8            8 School of Human… School of… AS                  AD059      Chie…
 9            9 Information Tec… User Serv… CP                  IT050      User…
10           10 College of Lett… Interdis … CP                  FP031      Faci…
# ℹ 21,847 more rows
# ℹ 8 more variables: `Full-time Equivalent` <dbl>, `Annual Full Salary` <dbl>,
#   `Annual FTE Adjusted Salary` <dbl>, `FLSA Status` <chr>,
#   `Salary Grade` <chr>, `Date of Hire` <dttm>,
#   `Appointment Type and Length` <chr>, salary_relative_to_title <dbl>

# Use group_by to calculate relative to title mean salary
salary.data %>%
  group_by(Title) %>%
  mutate(salary_relative_to_title = `Annual FTE Adjusted Salary` - mean(`Annual FTE Adjusted Salary`))

# A tibble: 21,857 × 14
# Groups:   Title [1,034]
   `Person Num` Division         Department `Employee Category` `Job Code` Title
          <dbl> <chr>            <chr>      <chr>               <chr>      <chr>
 1            1 UW - Madison Ex… Positive … AS                  OE009      Outr…
 2            2 Intercollegiate… General O… AS                  AE002      Acad…
 3            3 School of Educa… Prof Lear… AS                  OE008      Outr…
 4            4 VC for Rsrch & … Administr… AS                  AD073      Admi…
 5            5 Sch of Med & Pu… UW Compre… AS                  OE009      Outr…
 6            6 Information Tec… Systems E… AS                  IT033      Serv…
 7            7 University Poli… Police Su… CP                  CP033X     Poli…
 8            8 School of Human… School of… AS                  AD059      Chie…
 9            9 Information Tec… User Serv… CP                  IT050      User…
10           10 College of Lett… Interdis … CP                  FP031      Faci…
# ℹ 21,847 more rows
# ℹ 8 more variables: `Full-time Equivalent` <dbl>, `Annual Full Salary` <dbl>,
#   `Annual FTE Adjusted Salary` <dbl>, `FLSA Status` <chr>,
#   `Salary Grade` <chr>, `Date of Hire` <dttm>,
#   `Appointment Type and Length` <chr>, salary_relative_to_title <dbl>
…
# A tibble: 1 × 2
  mean_salary n_people
        <dbl>    <int>
1      65729.    21231

# Find mean salary and number of people by Division and Department
 salary.data %>%
   group_by(Division, Department) %>%
  summarize(mean_salary = mean(`Annual FTE Adjusted Salary`),
            n_people = n_distinct(`Person Num`))

# A tibble: 534 × 4
# Groups:   Division [36]
   Division                     Department                  mean_salary n_people
   <chr>                        <chr>                             <dbl>    <int>
 1 Business Services            Accounting Services              68278.       49
 2 Business Services            Administration                   64438         1
 3 Business Services            Bursar                           69852.       12
 4 Business Services            Business Analysis                86755         3
 5 Business Services            Content Mgmt, Comm & Train…      74119.        4
 6 Business Services            Materials Distribution Svcs      54225.       22
 7 Business Services            Purchasing Services              78259.       21
 8 Business Services            Risk Management                  91040.        4
 9 College of Ag & Life Science Admin - Cooperative Extens…      20686.        1
10 College of Ag & Life Science Admin - Dean & Director          59947.       10
# ℹ 524 more rows
…
Combining Multiple Data Sources

We’ve looked at a few functions that will help to summarize or change the contents of a data set, but one of the reasons to use R is that it is easy to combine data sets as well.

Download the pay grades .xlsx file and place it into the same “Example_Data” folder as the salary file. We are going to load it and then join it to our existing data set.

#Load pay_grades.xlsx into the variable pay.grades
pay.grades <- read_excel("Example_Data/pay_grades.xlsx")
#Display data frame
pay.grades

# A tibble: 52 × 2
   `Salary Grade` `Annual Salary Range`
            <dbl> <chr>                
 1             15 $31,200–63,800       
 2             16 $33,700–68,970       
 3             17 $36,500–74,470       
 4             18 $39,400–80,520       
 5             19 $42,600–86,900       
 6             20 $46,000–93,940       
 7             21 $49,700–101,530      
 8             22 $53,700–109,670      
 9             23 $58,000–118,360      
10             24 $63,800–130,240      
# ℹ 42 more rows
…
